…
``` r
results = 
  homicide_info %>% 
  mutate(
    prop_tests = map2(.x = unsolved_homicides, .y = total_homicides,          ~prop.test(x = .x, n = .y)),
    tidy_tests = map(.x = prop_tests, ~tidy(.x))
  ) %>% 
  select(-prop_tests) %>% 
  unnest(tidy_tests) %>% 
  select(city_state, estimate, conf.low, conf.high)

results
```

    ## # A tibble: 50 × 4
    ##    city_state      estimate conf.low conf.high
    ##    <chr>              <dbl>    <dbl>     <dbl>
    ##  1 Albuquerque, NM    0.386    0.337     0.438
    ##  2 Atlanta, GA        0.383    0.353     0.415
    ##  3 Baltimore, MD      0.646    0.628     0.663
    ##  4 Baton Rouge, LA    0.462    0.414     0.511
    ##  5 Birmingham, AL     0.434    0.399     0.469
    ##  6 Boston, MA         0.505    0.465     0.545
    ##  7 Buffalo, NY        0.612    0.569     0.654
    ##  8 Charlotte, NC      0.300    0.266     0.336
    ##  9 Chicago, IL        0.736    0.724     0.747
    ## 10 Cincinnati, OH     0.445    0.408     0.483
    ## # … with 40 more rows
…
The following code is a simulation of when mu = 0, 5000 datasets are
generated by the model, and the estimate and p-value are obtained from a
one-sample t-test.

``` r
mu_0_simulation = rerun(5000, simulation_function(mu = 0)) %>%
bind_rows()

mu_0_simulation
```

    ## # A tibble: 5,000 × 2
    ##    estimate p.value
    ##       <dbl>   <dbl>
    ##  1  -1.17    0.126 
    ##  2   0.140   0.879 
    ##  3   1.39    0.0461
    ##  4   0.0262  0.970 
    ##  5  -1.29    0.218 
    ##  6   1.59    0.164 
    ##  7  -0.761   0.480 
    ##  8   0.376   0.676 
    ##  9   1.21    0.219 
    ## 10   0.854   0.315 
    ## # … with 4,990 more rows
…
``` r
mu_sim = tibble(mu = c(0,1,2,3,4,5,6)) %>%
  mutate(output = map(.x = mu, ~rerun(5000,
  simulation_function(mu = .x))),
  result = map(output, bind_rows)) %>%
  select(-output) %>%
  unnest()

mu_sim
```

    ## # A tibble: 35,000 × 3
    ##       mu estimate p.value
    ##    <dbl>    <dbl>   <dbl>
    ##  1     0  -0.567    0.498
    ##  2     0   0.0829   0.910
    ##  3     0   0.0715   0.930
    ##  4     0   0.955    0.344
    ##  5     0  -0.324    0.730
    ##  6     0  -0.787    0.453
    ##  7     0   0.236    0.789
    ##  8     0   0.0283   0.978
    ##  9     0  -0.713    0.359
    ## 10     0   0.597    0.456
    ## # … with 34,990 more rows
…
